{
    "content": [
      {
        "id": "81295047-ceb8-4638-8f5c-b88e2aa74952",
        "createdAt": "2023-05-08T07:17:37.622127Z",
        "updatedAt": "2023-05-08T07:17:37.622127Z",
        "accountId": "3c86279b-610a-4dba-ad12-abe3bdc51428",
        "workspaceId": "80357ed6-9fa2-403c-9af0-65e4955d4816",
        "orderId": "7c37af83-e33f-43fa-bb2d-7dbb3e8c4b7c",
        "creditsPrice": 0,
        "decision": "NOT_DECIDED",
        "decisionById": null,
        "decisionByType": null,
        "decisionAt": null
      },
      {
        "id": "6f83adac-752c-4546-8c35-639a3b20d2b7",
        "createdAt": "2023-05-01T17:05:41.749425Z",
        "updatedAt": "2023-05-01T17:06:04.115594Z",
        "accountId": "3c86279b-610a-4dba-ad12-abe3bdc51428",
        "workspaceId": "eb1626d2-8015-43e9-acab-fbfaee89466c",
        "orderId": "3bc7beb8-0ba4-4cbf-aa6d-a78b3c33a46d",
        "creditsPrice": 300,
        "decision": "ACCEPTED",
        "decisionById": "eb1626d2-8015-43e9-acab-fbfaee89466c",
        "decisionByType": "USER",
        "decisionAt": "2023-05-01T17:06:03.400100Z"
      },
      {
        "id": "76780ca6-028a-4bfb-8ea7-91214e738a80",
        "createdAt": "2023-05-01T17:04:22.405847Z",
        "updatedAt": "2023-05-01T17:04:22.405847Z",
        "accountId": "3c86279b-610a-4dba-ad12-abe3bdc51428",
        "workspaceId": "eb1626d2-8015-43e9-acab-fbfaee89466c",
        "orderId": "43d3aca0-0598-4954-ad22-193e727b82b5",
        "creditsPrice": 300,
        "decision": "NOT_DECIDED",
        "decisionById": null,
        "decisionByType": null,
        "decisionAt": null
      },
      {
        "id": "f8eb67f6-1b6b-471e-9564-9b841677f04e",
        "createdAt": "2023-04-28T18:51:24.200075Z",
        "updatedAt": "2023-04-28T18:51:24.200075Z",
        "accountId": "3c86279b-610a-4dba-ad12-abe3bdc51428",
        "workspaceId": "eb1626d2-8015-43e9-acab-fbfaee89466c",
        "orderId": "949cdd4c-1538-4262-a3a9-b24bd61847fa",
        "creditsPrice": 3434,
        "decision": "NOT_DECIDED",
        "decisionById": null,
        "decisionByType": null,
        "decisionAt": null
      },
      {
        "id": "db9fc8f9-8e01-48d4-8e2d-c27d270a28ba",
        "createdAt": "2023-04-28T18:43:03.412906Z",
        "updatedAt": "2023-04-28T18:55:17.605303Z",
        "accountId": "3c86279b-610a-4dba-ad12-abe3bdc51428",
        "workspaceId": "eb1626d2-8015-43e9-acab-fbfaee89466c",
        "orderId": "135862b9-b6fd-4d96-b5ec-da501cfc6b6a",
        "creditsPrice": 2,
        "decision": "ACCEPTED",
        "decisionById": "eb1626d2-8015-43e9-acab-fbfaee89466c",
        "decisionByType": "USER",
        "decisionAt": "2023-04-28T18:55:16.931823Z"
      },
      {
        "id": "f81cd8b1-be87-4418-ba51-2f61d6630ef9",
        "createdAt": "2023-04-18T12:40:55.283431Z",
        "updatedAt": "2023-05-10T08:53:21.306409Z",
        "accountId": "3c86279b-610a-4dba-ad12-abe3bdc51428",
        "workspaceId": "313ba781-8aee-4585-b045-77eafa1fb592",
        "orderId": "78462a56-8431-4d57-a97a-4666004a355a",
        "creditsPrice": 1,
        "decision": "ACCEPTED",
        "decisionById": null,
        "decisionByType": "ADMIN",
        "decisionAt": "2023-05-10T08:53:20.709270Z"
      },
      {
        "id": "6dd1cc01-feaa-4639-9787-c4ffdb135256",
        "createdAt": "2023-04-18T10:20:45.708412Z",
        "updatedAt": "2023-04-18T10:20:45.708412Z",
        "accountId": "3c86279b-610a-4dba-ad12-abe3bdc51428",
        "workspaceId": "313ba781-8aee-4585-b045-77eafa1fb592",
        "orderId": "1abb8f56-58d8-45cb-8ba4-911f2bea064a",
        "creditsPrice": 1,
        "decision": "NOT_DECIDED",
        "decisionById": null,
        "decisionByType": null,
        "decisionAt": null
      },
      {
        "id": "850d1cbb-0eaa-4d4d-a0ef-4394cdb9cb3b",
        "createdAt": "2023-04-18T08:28:36.589212Z",
        "updatedAt": "2023-04-18T08:29:19.018658Z",
        "accountId": "3c86279b-610a-4dba-ad12-abe3bdc51428",
        "workspaceId": "4066dd44-fde9-4096-b043-9ca6859112ae",
        "orderId": "269f3586-be45-40b1-8465-9ae0ff574fee",
        "creditsPrice": 1,
        "decision": "REJECTED",
        "decisionById": "4066dd44-fde9-4096-b043-9ca6859112ae",
        "decisionByType": "USER",
        "decisionAt": "2023-04-18T08:29:19.013211Z"
      },
      {
        "id": "6e4720af-c17d-4c18-bf3a-c94ad0663034",
        "createdAt": "2023-04-11T15:02:08.830923Z",
        "updatedAt": "2023-04-11T15:02:31.303387Z",
        "accountId": "3c86279b-610a-4dba-ad12-abe3bdc51428",
        "workspaceId": "313ba781-8aee-4585-b045-77eafa1fb592",
        "orderId": "d7574551-aa40-4214-8c38-d1741a983192",
        "creditsPrice": 1,
        "decision": "ACCEPTED",
        "decisionById": null,
        "decisionByType": "ADMIN",
        "decisionAt": "2023-04-11T15:02:30.657Z"
      },
      {
        "id": "0abff136-f514-42f4-9a6c-4de4afa3546f",
        "createdAt": "2023-02-24T17:05:31.708598Z",
        "updatedAt": "2023-02-24T17:05:31.708598Z",
        "accountId": "3c86279b-610a-4dba-ad12-abe3bdc51428",
        "workspaceId": "eb1626d2-8015-43e9-acab-fbfaee89466c",
        "orderId": "814bf840-365d-45d0-b4b9-e24ffe3c5425",
        "creditsPrice": 10,
        "decision": "NOT_DECIDED",
        "decisionById": null,
        "decisionByType": null,
        "decisionAt": null
      }
    ],
    "pageable": {
      "sort": {
        "sorted": true,
        "unsorted": false,
        "empty": false
      },
      "pageNumber": 0,
      "pageSize": 10,
      "offset": 0,
      "paged": true,
      "unpaged": false
    },
    "totalPages": 3,
    "totalElements": 23,
    "last": false,
    "sort": {
      "sorted": true,
      "unsorted": false,
      "empty": false
    },
    "numberOfElements": 10,
    "first": true,
    "size": 10,
    "number": 0,
    "empty": false
}
