{
    "content": [
      {
        "id": "ecc9729a-0f65-4eed-ab7f-f11671e8f50a",
        "createdAt": "2022-12-08T15:06:26.530455Z",
        "updatedAt": "2022-12-08T15:14:30.837612Z",
        "accountId": "3c86279b-610a-4dba-ad12-abe3bdc51428",
        "workspaceId": "eb1626d2-8015-43e9-acab-fbfaee89466c",
        "orderId": "b4fbabf0-1f6c-4e8a-a021-da76f908d156",
        "creditsPrice": 10,
        "decision": "REJECTED",
        "decisionById": "eb1626d2-8015-43e9-acab-fbfaee89466c",
        "decisionByType": "USER",
        "decisionAt": "2022-12-08T15:14:30.835203Z"
      },
      {
        "id": "d8f0f2b2-d4e3-4fc1-a2ca-36c6c8483f17",
        "createdAt": "2022-10-17T14:30:20.284157Z",
        "updatedAt": "2022-11-29T14:33:33.228913Z",
        "accountId": "3c86279b-610a-4dba-ad12-abe3bdc51428",
        "workspaceId": "8c7ffd36-f0ea-4713-83aa-8cd4a7445c47",
        "orderId": "0a97af36-3dd8-4454-949c-bdb75499329d",
        "creditsPrice": 1,
        "decision": "REJECTED",
        "decisionById": "c744111f-7f27-4c28-b06f-487bf0290520",
        "decisionByType": "USER",
        "decisionAt": "2022-11-29T14:33:33.216743Z"
      },
      {
        "id": "296ef1b0-d890-430d-8d14-e9b579ab08bd",
        "createdAt": "2022-10-17T13:09:03.276796Z",
        "updatedAt": "2022-10-17T13:09:42.030804Z",
        "accountId": "3c86279b-610a-4dba-ad12-abe3bdc51428",
        "workspaceId": "81184666-a830-4c40-8c7e-fa4238146661",
        "orderId": "6c8fbe97-8122-4280-a142-7416c8a2a888",
        "creditsPrice": 1,
        "decision": "ACCEPTED",
        "decisionById": "81184666-a830-4c40-8c7e-fa4238146661",
        "decisionByType": "USER",
        "decisionAt": "2022-10-17T13:09:41.292041Z"
      }
    ],
    "pageable": {
      "sort": {
        "unsorted": false,
        "sorted": true,
        "empty": false
      },
      "pageNumber": 2,
      "pageSize": 10,
      "offset": 20,
      "unpaged": false,
      "paged": true
    },
    "last": true,
    "totalElements": 23,
    "totalPages": 3,
    "sort": {
      "unsorted": false,
      "sorted": true,
      "empty": false
    },
    "numberOfElements": 3,
    "first": false,
    "size": 10,
    "number": 2,
    "empty": false
  }
  