{
    "content": [
      {
        "id": "00128be2-3821-489d-8e7e-ca84fe831a8c",
        "createdAt": "2023-02-23T11:25:08.709865Z",
        "updatedAt": "2023-02-23T11:26:47.916643Z",
        "accountId": "3c86279b-610a-4dba-ad12-abe3bdc51428",
        "workspaceId": "fb9d991f-022d-4097-93bf-6838cf28eb7a",
        "orderId": "7aad20a9-ab86-4738-98e2-0247939b99b9",
        "creditsPrice": 1,
        "decision": "ACCEPTED",
        "decisionById": "fb9d991f-022d-4097-93bf-6838cf28eb7a",
        "decisionByType": "USER",
        "decisionAt": "2023-02-23T11:26:47.165408Z"
      },
      {
        "id": "bfc12ecc-09ec-463c-971f-a3cfbca03f93",
        "createdAt": "2023-02-22T17:42:49.472041Z",
        "updatedAt": "2023-02-22T17:42:49.472041Z",
        "accountId": "3c86279b-610a-4dba-ad12-abe3bdc51428",
        "workspaceId": "fb9d991f-022d-4097-93bf-6838cf28eb7a",
        "orderId": "3133d6dd-02f2-4f77-88ea-528a814a49c8",
        "creditsPrice": 1,
        "decision": "NOT_DECIDED",
        "decisionById": null,
        "decisionByType": null,
        "decisionAt": null
      },
      {
        "id": "979fc165-25c2-49f0-860d-d14e5b8c7654",
        "createdAt": "2023-02-22T10:45:13.913688Z",
        "updatedAt": "2023-02-22T10:45:13.913688Z",
        "accountId": "3c86279b-610a-4dba-ad12-abe3bdc51428",
        "workspaceId": "857e91e0-579b-4798-8cb3-a0da9afe6ad9",
        "orderId": "418b79f3-ea81-4437-ac50-00bfb33f3a40",
        "creditsPrice": 50,
        "decision": "NOT_DECIDED",
        "decisionById": null,
        "decisionByType": null,
        "decisionAt": null
      },
      {
        "id": "42fee0d7-3da1-4ae3-8d57-940e705c4fc4",
        "createdAt": "2023-02-08T17:04:22.470857Z",
        "updatedAt": "2023-02-08T17:04:22.470857Z",
        "accountId": "3c86279b-610a-4dba-ad12-abe3bdc51428",
        "workspaceId": "eb1626d2-8015-43e9-acab-fbfaee89466c",
        "orderId": "81efa8f5-bd30-408a-8522-18fa5454eda9",
        "creditsPrice": 10,
        "decision": "NOT_DECIDED",
        "decisionById": null,
        "decisionByType": null,
        "decisionAt": null
      },
      {
        "id": "aa587753-a9ed-49e3-842e-7bdd36f156e6",
        "createdAt": "2023-02-08T15:57:09.624878Z",
        "updatedAt": "2023-02-08T15:57:48.179768Z",
        "accountId": "3c86279b-610a-4dba-ad12-abe3bdc51428",
        "workspaceId": "c17c8467-1cf5-4c86-b2f5-05c397aa67e2",
        "orderId": "c4777500-4ae4-479c-84a8-7efa411ebf4e",
        "creditsPrice": 4200,
        "decision": "NOT_DECIDED",
        "decisionById": null,
        "decisionByType": null,
        "decisionAt": null
      },
      {
        "id": "5c658409-6bf0-4cb5-bbaf-a0c56d2faf1d",
        "createdAt": "2023-02-01T14:10:25.490796Z",
        "updatedAt": "2023-02-01T14:10:25.490796Z",
        "accountId": "3c86279b-610a-4dba-ad12-abe3bdc51428",
        "workspaceId": "c17c8467-1cf5-4c86-b2f5-05c397aa67e2",
        "orderId": "5c470fa1-cd24-429f-aa46-850ddf1c636f",
        "creditsPrice": 123000,
        "decision": "NOT_DECIDED",
        "decisionById": null,
        "decisionByType": null,
        "decisionAt": null
      },
      {
        "id": "eac35317-c576-4952-9d41-d1a106d9967e",
        "createdAt": "2023-01-24T14:06:05.145241Z",
        "updatedAt": "2023-01-24T14:08:15.902755Z",
        "accountId": "3c86279b-610a-4dba-ad12-abe3bdc51428",
        "workspaceId": "c17c8467-1cf5-4c86-b2f5-05c397aa67e2",
        "orderId": "79cf9483-9d35-40f6-9c55-d00162a15761",
        "creditsPrice": 2006850,
        "decision": "ACCEPTED",
        "decisionById": "1a69b97d-c4c9-4408-954c-e5f9a8818e6d",
        "decisionByType": "USER",
        "decisionAt": "2023-01-24T14:08:15.283035Z"
      },
      {
        "id": "2a6897f1-389c-43a4-8603-2e3a82b805f0",
        "createdAt": "2023-01-24T12:30:32.265564Z",
        "updatedAt": "2023-01-24T12:30:52.008304Z",
        "accountId": "3c86279b-610a-4dba-ad12-abe3bdc51428",
        "workspaceId": "313ba781-8aee-4585-b045-77eafa1fb592",
        "orderId": "354e67c7-b019-480f-9b91-c0f2c714dc6b",
        "creditsPrice": 1,
        "decision": "ACCEPTED",
        "decisionById": "313ba781-8aee-4585-b045-77eafa1fb592",
        "decisionByType": "USER",
        "decisionAt": "2023-01-24T12:30:51.276785Z"
      },
      {
        "id": "838270de-ae96-4cff-bf52-66a0c6a69dd4",
        "createdAt": "2023-01-10T16:24:06.172335Z",
        "updatedAt": "2023-01-10T16:24:55.867290Z",
        "accountId": "3c86279b-610a-4dba-ad12-abe3bdc51428",
        "workspaceId": "313ba781-8aee-4585-b045-77eafa1fb592",
        "orderId": "d2c2b796-44e0-4224-bad5-27ec0c44141a",
        "creditsPrice": 1,
        "decision": "ACCEPTED",
        "decisionById": "313ba781-8aee-4585-b045-77eafa1fb592",
        "decisionByType": "USER",
        "decisionAt": "2023-01-10T16:24:55.175456Z"
      },
      {
        "id": "4ebfd750-6e7a-4da1-a70e-23b445a8519a",
        "createdAt": "2022-12-19T19:11:12.292777Z",
        "updatedAt": "2023-01-10T20:12:46.109464Z",
        "accountId": "3c86279b-610a-4dba-ad12-abe3bdc51428",
        "workspaceId": "eb1626d2-8015-43e9-acab-fbfaee89466c",
        "orderId": "b4fbabf0-1f6c-4e8a-a021-da76f908d156",
        "creditsPrice": 10,
        "decision": "REJECTED",
        "decisionById": "eb1626d2-8015-43e9-acab-fbfaee89466c",
        "decisionByType": "USER",
        "decisionAt": "2023-01-10T20:12:46.105933Z"
      }
    ],
    "pageable": {
      "sort": {
        "sorted": true,
        "unsorted": false,
        "empty": false
      },
      "pageNumber": 1,
      "pageSize": 10,
      "offset": 10,
      "paged": true,
      "unpaged": false
    },
    "totalPages": 3,
    "totalElements": 23,
    "last": false,
    "sort": {
      "sorted": true,
      "unsorted": false,
      "empty": false
    },
    "numberOfElements": 10,
    "first": false,
    "size": 10,
    "number": 1,
    "empty": false
  }
