{
    "content": [
        {
            "id": "e6285c5b-0b1f-4e87-be4b-782705f5ae2d",
            "createdAt": "2023-05-09T13:21:26.736889Z",
            "updatedAt": "2023-05-09T13:29:18.896470Z",
            "accountId": "3c86279b-610a-4dba-ad12-abe3bdc51428",
            "workspaceId": "313ba781-8aee-4585-b045-77eafa1fb592",
            "orderId": "ba35da3a-c9e9-45cd-bfa9-ced22c221e46",
            "type": "MANUAL",
            "options": [
                {
                    "id": "ed3628eb-a324-4470-b802-ee9625c34b3d",
                    "createdAt": "2023-05-09T13:21:27.371547Z",
                    "updatedAt": "2023-05-09T13:21:27.371547Z",
                    "studyId": "e6285c5b-0b1f-4e87-be4b-782705f5ae2d",
                    "description": "Feasibility option A"
                },
                {
                    "id": "377aabca-3113-4b38-853f-8f954843fb50",
                    "createdAt": "2023-05-09T13:21:35.250676Z",
                    "updatedAt": "2023-05-09T13:21:42.026072Z",
                    "studyId": "e6285c5b-0b1f-4e87-be4b-782705f5ae2d",
                    "description": "Feasibility option B"
                }
            ],
            "decision": "ACCEPTED",
            "decisionById": "80357ed6-9fa2-403c-9af0-65e4955d4816",
            "decisionByType": "USER",
            "decisionAt": "2023-05-09T13:29:18.885491Z",
            "decisionOption": {
                "id": "377aabca-3113-4b38-853f-8f954843fb50",
                "createdAt": "2023-05-09T13:21:35.250676Z",
                "updatedAt": "2023-05-09T13:21:42.026072Z",
                "studyId": "e6285c5b-0b1f-4e87-be4b-782705f5ae2d",
                "description": "Feasibility option B"
            }
        },
        {
            "id": "ccfb2066-a935-485c-8a40-91a7ca63fb7d",
            "createdAt": "2023-05-09T13:16:59.880099Z",
            "updatedAt": "2023-05-09T13:16:59.880099Z",
            "accountId": "3c86279b-610a-4dba-ad12-abe3bdc51428",
            "workspaceId": "313ba781-8aee-4585-b045-77eafa1fb592",
            "orderId": "6a6b5abe-f7c1-4f61-bcab-87e20b25ff5f",
            "type": "AUTO",
            "options": [],
            "decision": "ACCEPTED",
            "decisionById": null,
            "decisionByType": null,
            "decisionAt": "2023-05-09T13:16:59.878771Z",
            "decisionOption": null
        },
        {
            "id": "c1cc719f-e429-4bfa-adc3-c4922489adfe",
            "createdAt": "2023-05-09T10:20:10.520992Z",
            "updatedAt": "2023-05-09T10:20:10.520992Z",
            "accountId": "3c86279b-610a-4dba-ad12-abe3bdc51428",
            "workspaceId": "4066dd44-fde9-4096-b043-9ca6859112ae",
            "orderId": "3f084d89-f2d3-4200-9ec6-ee80c2ad4119",
            "type": "MANUAL",
            "options": [
                {
                    "id": "b3285ad0-5fea-455f-a0bf-a79cab352857",
                    "createdAt": "2023-05-09T10:20:11.203893Z",
                    "updatedAt": "2023-05-09T10:20:11.203893Z",
                    "studyId": "c1cc719f-e429-4bfa-adc3-c4922489adfe",
                    "description": "test feasibility"
                }
            ],
            "decision": "NOT_DECIDED",
            "decisionById": null,
            "decisionByType": null,
            "decisionAt": null,
            "decisionOption": null
        },
        {
            "id": "c3d452d3-4e19-4932-8b3b-0174c6281ef2",
            "createdAt": "2023-05-08T07:17:59.131393Z",
            "updatedAt": "2023-05-08T07:20:45.499274Z",
            "accountId": "3c86279b-610a-4dba-ad12-abe3bdc51428",
            "workspaceId": "80357ed6-9fa2-403c-9af0-65e4955d4816",
            "orderId": "7c37af83-e33f-43fa-bb2d-7dbb3e8c4b7c",
            "type": "MANUAL",
            "options": [
                {
                    "id": "6c02143c-a9c1-41a2-838a-acfc3af06cf1",
                    "createdAt": "2023-05-08T07:17:59.358445Z",
                    "updatedAt": "2023-05-08T07:17:59.358445Z",
                    "studyId": "c3d452d3-4e19-4932-8b3b-0174c6281ef2",
                    "description": "option A"
                },
                {
                    "id": "9095405b-228e-41ff-9b92-0d5b34afc4d7",
                    "createdAt": "2023-05-08T07:18:06.698593Z",
                    "updatedAt": "2023-05-08T07:18:06.698593Z",
                    "studyId": "c3d452d3-4e19-4932-8b3b-0174c6281ef2",
                    "description": "option B"
                }
            ],
            "decision": "ACCEPTED",
            "decisionById": "80357ed6-9fa2-403c-9af0-65e4955d4816",
            "decisionByType": "USER",
            "decisionAt": "2023-05-08T07:20:45.463225Z",
            "decisionOption": {
                "id": "6c02143c-a9c1-41a2-838a-acfc3af06cf1",
                "createdAt": "2023-05-08T07:17:59.358445Z",
                "updatedAt": "2023-05-08T07:17:59.358445Z",
                "studyId": "c3d452d3-4e19-4932-8b3b-0174c6281ef2",
                "description": "option A"
            }
        },
        {
            "id": "c369040f-7044-4163-bb4c-0a1bfd51106f",
            "createdAt": "2023-05-01T17:02:50.357027Z",
            "updatedAt": "2023-05-01T17:02:50.357027Z",
            "accountId": "3c86279b-610a-4dba-ad12-abe3bdc51428",
            "workspaceId": "eb1626d2-8015-43e9-acab-fbfaee89466c",
            "orderId": "43d3aca0-0598-4954-ad22-193e727b82b5",
            "type": "MANUAL",
            "options": [
                {
                    "id": "88c32d35-8f04-4d39-bb18-5d2a428221b9",
                    "createdAt": "2023-05-01T17:02:50.997870Z",
                    "updatedAt": "2023-05-01T17:02:50.997870Z",
                    "studyId": "c369040f-7044-4163-bb4c-0a1bfd51106f",
                    "description": "OPTION 1: Extend acquisition dates"
                },
                {
                    "id": "0dc703e9-a699-4f29-956b-4b25d827c784",
                    "createdAt": "2023-05-01T17:03:02.387339Z",
                    "updatedAt": "2023-05-01T17:03:02.387339Z",
                    "studyId": "c369040f-7044-4163-bb4c-0a1bfd51106f",
                    "description": "OPTION 2: Increase incidence angle"
                }
            ],
            "decision": "NOT_DECIDED",
            "decisionById": null,
            "decisionByType": null,
            "decisionAt": null,
            "decisionOption": null
        },
        {
            "id": "d0f3ba17-94e9-4313-b949-921883bb6b4d",
            "createdAt": "2023-04-28T18:48:57.900356Z",
            "updatedAt": "2023-04-28T18:50:54.412694Z",
            "accountId": "3c86279b-610a-4dba-ad12-abe3bdc51428",
            "workspaceId": "eb1626d2-8015-43e9-acab-fbfaee89466c",
            "orderId": "949cdd4c-1538-4262-a3a9-b24bd61847fa",
            "type": "MANUAL",
            "options": [
                {
                    "id": "9f37ca64-3865-44b3-a0fe-a1a0890a0703",
                    "createdAt": "2023-04-28T18:49:20.971481Z",
                    "updatedAt": "2023-04-28T18:49:20.971481Z",
                    "studyId": "d0f3ba17-94e9-4313-b949-921883bb6b4d",
                    "description": "is feasible"
                }
            ],
            "decision": "ACCEPTED",
            "decisionById": "eb1626d2-8015-43e9-acab-fbfaee89466c",
            "decisionByType": "USER",
            "decisionAt": "2023-04-28T18:50:54.399518Z",
            "decisionOption": {
                "id": "9f37ca64-3865-44b3-a0fe-a1a0890a0703",
                "createdAt": "2023-04-28T18:49:20.971481Z",
                "updatedAt": "2023-04-28T18:49:20.971481Z",
                "studyId": "d0f3ba17-94e9-4313-b949-921883bb6b4d",
                "description": "is feasible"
            }
        },
        {
            "id": "4da8042f-8476-47e4-bd44-c59fa534da2d",
            "createdAt": "2023-04-28T18:41:35.335180Z",
            "updatedAt": "2023-04-28T18:42:12.655313Z",
            "accountId": "3c86279b-610a-4dba-ad12-abe3bdc51428",
            "workspaceId": "eb1626d2-8015-43e9-acab-fbfaee89466c",
            "orderId": "135862b9-b6fd-4d96-b5ec-da501cfc6b6a",
            "type": "MANUAL",
            "options": [
                {
                    "id": "0961af34-15d9-42f1-967c-664f15faae8a",
                    "createdAt": "2023-04-28T18:41:36.279759Z",
                    "updatedAt": "2023-04-28T18:41:36.279759Z",
                    "studyId": "4da8042f-8476-47e4-bd44-c59fa534da2d",
                    "description": "OPTION 1: yes"
                },
                {
                    "id": "6a955102-3799-4b53-a358-d39e0d08ce6b",
                    "createdAt": "2023-04-28T18:41:45.919238Z",
                    "updatedAt": "2023-04-28T18:41:45.919238Z",
                    "studyId": "4da8042f-8476-47e4-bd44-c59fa534da2d",
                    "description": "Option2: more yes"
                }
            ],
            "decision": "ACCEPTED",
            "decisionById": "eb1626d2-8015-43e9-acab-fbfaee89466c",
            "decisionByType": "USER",
            "decisionAt": "2023-04-28T18:42:12.469591Z",
            "decisionOption": {
                "id": "0961af34-15d9-42f1-967c-664f15faae8a",
                "createdAt": "2023-04-28T18:41:36.279759Z",
                "updatedAt": "2023-04-28T18:41:36.279759Z",
                "studyId": "4da8042f-8476-47e4-bd44-c59fa534da2d",
                "description": "OPTION 1: yes"
            }
        },
        {
            "id": "e6132c77-fe8f-4fd3-953c-2e2cfd3a9295",
            "createdAt": "2023-04-19T09:51:05.847323Z",
            "updatedAt": "2023-04-19T09:51:05.847323Z",
            "accountId": "3c86279b-610a-4dba-ad12-abe3bdc51428",
            "workspaceId": "313ba781-8aee-4585-b045-77eafa1fb592",
            "orderId": "d2c2b796-44e0-4224-bad5-27ec0c44141a",
            "type": "MANUAL",
            "options": [
                {
                    "id": "4ca15ce8-8e2f-4e30-9e12-21a9d2b3bc0b",
                    "createdAt": "2023-04-19T09:51:06.163148Z",
                    "updatedAt": "2023-04-19T09:51:06.163148Z",
                    "studyId": "e6132c77-fe8f-4fd3-953c-2e2cfd3a9295",
                    "description": "test"
                },
                {
                    "id": "49a474ba-be38-4e0e-95bb-4af2eda23854",
                    "createdAt": "2023-04-19T09:51:11.795579Z",
                    "updatedAt": "2023-04-19T09:51:11.795579Z",
                    "studyId": "e6132c77-fe8f-4fd3-953c-2e2cfd3a9295",
                    "description": "tset"
                }
            ],
            "decision": "NOT_DECIDED",
            "decisionById": null,
            "decisionByType": null,
            "decisionAt": null,
            "decisionOption": null
        },
        {
            "id": "3d977211-2594-4b19-b060-bbb2832a61c7",
            "createdAt": "2023-04-18T12:40:44.379368Z",
            "updatedAt": "2023-04-18T12:40:44.379368Z",
            "accountId": "3c86279b-610a-4dba-ad12-abe3bdc51428",
            "workspaceId": "313ba781-8aee-4585-b045-77eafa1fb592",
            "orderId": "78462a56-8431-4d57-a97a-4666004a355a",
            "type": "AUTO",
            "options": [],
            "decision": "ACCEPTED",
            "decisionById": null,
            "decisionByType": null,
            "decisionAt": "2023-04-18T12:40:44.336364Z",
            "decisionOption": null
        },
        {
            "id": "df0dbe46-f371-4732-9e0c-64c8d758772b",
            "createdAt": "2023-04-18T10:20:40.887852Z",
            "updatedAt": "2023-04-18T10:20:40.887852Z",
            "accountId": "3c86279b-610a-4dba-ad12-abe3bdc51428",
            "workspaceId": "313ba781-8aee-4585-b045-77eafa1fb592",
            "orderId": "1abb8f56-58d8-45cb-8ba4-911f2bea064a",
            "type": "AUTO",
            "options": [],
            "decision": "ACCEPTED",
            "decisionById": null,
            "decisionByType": null,
            "decisionAt": "2023-04-18T10:20:40.887429Z",
            "decisionOption": null
        }
    ],
    "pageable": {
        "sort": {
            "sorted": true,
            "unsorted": false,
            "empty": false
        },
        "pageSize": 10,
        "pageNumber": 0,
        "offset": 0,
        "paged": true,
        "unpaged": false
    },
    "totalPages": 3,
    "totalElements": 26,
    "last": false,
    "sort": {
        "sorted": true,
        "unsorted": false,
        "empty": false
    },
    "numberOfElements": 10,
    "first": true,
    "size": 10,
    "number": 0,
    "empty": false
}
