{
    "content": [
        {
            "id": "fcbcc690-4575-4884-8378-e48fa8a93d43",
            "createdAt": "2023-04-18T08:28:32.660295Z",
            "updatedAt": "2023-04-18T08:28:32.660295Z",
            "accountId": "3c86279b-610a-4dba-ad12-abe3bdc51428",
            "workspaceId": "4066dd44-fde9-4096-b043-9ca6859112ae",
            "orderId": "269f3586-be45-40b1-8465-9ae0ff574fee",
            "type": "AUTO",
            "options": [],
            "decision": "ACCEPTED",
            "decisionById": null,
            "decisionByType": null,
            "decisionAt": "2023-04-18T08:28:32.659843Z",
            "decisionOption": null
        },
        {
            "id": "e230cf07-0cea-496b-9a7e-878dc9b24211",
            "createdAt": "2023-04-11T15:02:02.885262Z",
            "updatedAt": "2023-04-11T15:02:02.885262Z",
            "accountId": "3c86279b-610a-4dba-ad12-abe3bdc51428",
            "workspaceId": "313ba781-8aee-4585-b045-77eafa1fb592",
            "orderId": "d7574551-aa40-4214-8c38-d1741a983192",
            "type": "AUTO",
            "options": [],
            "decision": "ACCEPTED",
            "decisionById": null,
            "decisionByType": null,
            "decisionAt": "2023-04-11T15:02:02.884725Z",
            "decisionOption": null
        },
        {
            "id": "7c40560c-61c4-47de-b551-4068bd717778",
            "createdAt": "2023-02-24T17:07:17.737766Z",
            "updatedAt": "2023-05-01T17:03:46.859156Z",
            "accountId": "3c86279b-610a-4dba-ad12-abe3bdc51428",
            "workspaceId": "eb1626d2-8015-43e9-acab-fbfaee89466c",
            "orderId": "3bc7beb8-0ba4-4cbf-aa6d-a78b3c33a46d",
            "type": "MANUAL",
            "options": [
                {
                    "id": "d6228d64-f0c9-4cb4-813d-595bf1817648",
                    "createdAt": "2023-02-24T17:07:18.265237Z",
                    "updatedAt": "2023-02-24T17:07:18.265237Z",
                    "studyId": "7c40560c-61c4-47de-b551-4068bd717778",
                    "description": "OPTION 1: Extend acquisition dates"
                },
                {
                    "id": "df07ad3e-d697-47ca-abb1-b8145529232d",
                    "createdAt": "2023-02-24T17:07:59.277213Z",
                    "updatedAt": "2023-02-24T17:07:59.277213Z",
                    "studyId": "7c40560c-61c4-47de-b551-4068bd717778",
                    "description": "OPTION 2: Increase incidence angle"
                }
            ],
            "decision": "ACCEPTED",
            "decisionById": "eb1626d2-8015-43e9-acab-fbfaee89466c",
            "decisionByType": "USER",
            "decisionAt": "2023-05-01T17:03:46.846390Z",
            "decisionOption": {
                "id": "df07ad3e-d697-47ca-abb1-b8145529232d",
                "createdAt": "2023-02-24T17:07:59.277213Z",
                "updatedAt": "2023-02-24T17:07:59.277213Z",
                "studyId": "7c40560c-61c4-47de-b551-4068bd717778",
                "description": "OPTION 2: Increase incidence angle"
            }
        },
        {
            "id": "f446af20-323b-4d79-8ab4-54a2c5aa4516",
            "createdAt": "2023-02-24T17:02:45.652654Z",
            "updatedAt": "2023-02-24T17:06:21.481628Z",
            "accountId": "3c86279b-610a-4dba-ad12-abe3bdc51428",
            "workspaceId": "eb1626d2-8015-43e9-acab-fbfaee89466c",
            "orderId": "814bf840-365d-45d0-b4b9-e24ffe3c5425",
            "type": "MANUAL",
            "options": [
                {
                    "id": "d1ba7e66-cabb-4759-aecd-49ae78ce8102",
                    "createdAt": "2023-02-24T17:04:06.741845Z",
                    "updatedAt": "2023-02-24T17:04:56.111704Z",
                    "studyId": "f446af20-323b-4d79-8ab4-54a2c5aa4516",
                    "description": "OPTION 1: Feasible"
                }
            ],
            "decision": "ACCEPTED",
            "decisionById": null,
            "decisionByType": "ADMIN",
            "decisionAt": "2023-02-24T17:06:21.299062Z",
            "decisionOption": {
                "id": "d1ba7e66-cabb-4759-aecd-49ae78ce8102",
                "createdAt": "2023-02-24T17:04:06.741845Z",
                "updatedAt": "2023-02-24T17:04:56.111704Z",
                "studyId": "f446af20-323b-4d79-8ab4-54a2c5aa4516",
                "description": "OPTION 1: Feasible"
            }
        },
        {
            "id": "57498405-92f9-418a-9254-2252ccb58594",
            "createdAt": "2023-02-23T11:21:30.819840Z",
            "updatedAt": "2023-02-23T11:24:57.382727Z",
            "accountId": "3c86279b-610a-4dba-ad12-abe3bdc51428",
            "workspaceId": "fb9d991f-022d-4097-93bf-6838cf28eb7a",
            "orderId": "7aad20a9-ab86-4738-98e2-0247939b99b9",
            "type": "MANUAL",
            "options": [
                {
                    "id": "5ce350fa-173c-447a-9308-aa99443c04c6",
                    "createdAt": "2023-02-23T11:21:31.495964Z",
                    "updatedAt": "2023-02-23T11:21:31.495964Z",
                    "studyId": "57498405-92f9-418a-9254-2252ccb58594",
                    "description": "If the original parameters are flexible, your tasking request can be made feasible using these parameters: \nacquistion period: 2022/08/15 - 2022/11/15; \ncommitment: YES; \nEstimated Area Coverage: 100%, \nPrice List Classification: OnePlan"
                },
                {
                    "id": "d56e38f3-a78e-46b6-9065-e754881f0ff5",
                    "createdAt": "2023-02-23T11:21:34.772681Z",
                    "updatedAt": "2023-02-23T11:21:34.772681Z",
                    "studyId": "57498405-92f9-418a-9254-2252ccb58594",
                    "description": "With your original parameters, it is implicitly acknowledged that complete coverage may not occur. Please see our estimate of coverage at right. \nCommitment: NO; \nEstimated Area Coverage: 60%; \nPrice List Classification: OnePlan"
                }
            ],
            "decision": "ACCEPTED",
            "decisionById": "fb9d991f-022d-4097-93bf-6838cf28eb7a",
            "decisionByType": "USER",
            "decisionAt": "2023-02-23T11:24:57.366747Z",
            "decisionOption": {
                "id": "5ce350fa-173c-447a-9308-aa99443c04c6",
                "createdAt": "2023-02-23T11:21:31.495964Z",
                "updatedAt": "2023-02-23T11:21:31.495964Z",
                "studyId": "57498405-92f9-418a-9254-2252ccb58594",
                "description": "If the original parameters are flexible, your tasking request can be made feasible using these parameters: \nacquistion period: 2022/08/15 - 2022/11/15; \ncommitment: YES; \nEstimated Area Coverage: 100%, \nPrice List Classification: OnePlan"
            }
        },
        {
            "id": "bad7dcdd-aed1-4191-ab3b-05163b1443ef",
            "createdAt": "2023-02-22T17:34:05.782190Z",
            "updatedAt": "2023-02-22T17:40:49.299703Z",
            "accountId": "3c86279b-610a-4dba-ad12-abe3bdc51428",
            "workspaceId": "fb9d991f-022d-4097-93bf-6838cf28eb7a",
            "orderId": "3133d6dd-02f2-4f77-88ea-528a814a49c8",
            "type": "MANUAL",
            "options": [
                {
                    "id": "f3f3ba85-9a97-47e6-99cb-b5edba5c85a7",
                    "createdAt": "2023-02-22T17:34:06.417954Z",
                    "updatedAt": "2023-02-22T17:34:06.417954Z",
                    "studyId": "bad7dcdd-aed1-4191-ab3b-05163b1443ef",
                    "description": "Fake feasibility result "
                },
                {
                    "id": "1ab62d9f-f13d-4c54-966d-f30a3d016465",
                    "createdAt": "2023-02-22T17:36:47.168862Z",
                    "updatedAt": "2023-02-22T17:36:47.168862Z",
                    "studyId": "bad7dcdd-aed1-4191-ab3b-05163b1443ef",
                    "description": "Fake feasibility study 2"
                },
                {
                    "id": "9abb6dda-ed85-41c6-9107-53127ebaa825",
                    "createdAt": "2023-02-22T17:36:56.651319Z",
                    "updatedAt": "2023-02-22T17:36:56.651319Z",
                    "studyId": "bad7dcdd-aed1-4191-ab3b-05163b1443ef",
                    "description": "Fake feasibility study 3"
                }
            ],
            "decision": "ACCEPTED",
            "decisionById": "fb9d991f-022d-4097-93bf-6838cf28eb7a",
            "decisionByType": "USER",
            "decisionAt": "2023-02-22T17:40:49.283158Z",
            "decisionOption": {
                "id": "f3f3ba85-9a97-47e6-99cb-b5edba5c85a7",
                "createdAt": "2023-02-22T17:34:06.417954Z",
                "updatedAt": "2023-02-22T17:34:06.417954Z",
                "studyId": "bad7dcdd-aed1-4191-ab3b-05163b1443ef",
                "description": "Fake feasibility result "
            }
        },
        {
            "id": "7ee82fb5-c04c-432d-a460-5404b5a14b38",
            "createdAt": "2023-02-22T10:41:04.522884Z",
            "updatedAt": "2023-02-22T10:44:33.645231Z",
            "accountId": "3c86279b-610a-4dba-ad12-abe3bdc51428",
            "workspaceId": "857e91e0-579b-4798-8cb3-a0da9afe6ad9",
            "orderId": "418b79f3-ea81-4437-ac50-00bfb33f3a40",
            "type": "MANUAL",
            "options": [
                {
                    "id": "4d41fe5b-bd4d-40c2-8a47-77f28b7a0a20",
                    "createdAt": "2023-02-22T10:41:05.310483Z",
                    "updatedAt": "2023-02-22T10:41:05.310483Z",
                    "studyId": "7ee82fb5-c04c-432d-a460-5404b5a14b38",
                    "description": "Will the leafs ever win another Stanley cup?\nProject Start Date: 1967\nEnd Date: Never\n"
                }
            ],
            "decision": "ACCEPTED",
            "decisionById": "857e91e0-579b-4798-8cb3-a0da9afe6ad9",
            "decisionByType": "USER",
            "decisionAt": "2023-02-22T10:44:33.616793Z",
            "decisionOption": {
                "id": "4d41fe5b-bd4d-40c2-8a47-77f28b7a0a20",
                "createdAt": "2023-02-22T10:41:05.310483Z",
                "updatedAt": "2023-02-22T10:41:05.310483Z",
                "studyId": "7ee82fb5-c04c-432d-a460-5404b5a14b38",
                "description": "Will the leafs ever win another Stanley cup?\nProject Start Date: 1967\nEnd Date: Never\n"
            }
        },
        {
            "id": "8435e648-756e-4878-9d45-bced0a0d61e2",
            "createdAt": "2023-02-10T16:22:12.781595Z",
            "updatedAt": "2023-02-10T16:26:27.652595Z",
            "accountId": "3c86279b-610a-4dba-ad12-abe3bdc51428",
            "workspaceId": "7692c4ce-dfe5-4367-8920-3bcf22614241",
            "orderId": "76946216-00c7-4ce8-b3f2-cf294cf52e4b",
            "type": "MANUAL",
            "options": [
                {
                    "id": "6a003427-8c59-42c3-aabc-f4d3faa7e0f0",
                    "createdAt": "2023-02-10T16:22:13.244954Z",
                    "updatedAt": "2023-02-10T16:22:13.244954Z",
                    "studyId": "8435e648-756e-4878-9d45-bced0a0d61e2",
                    "description": "Order Options:\nProject Timeline: 10/02/2023 to 25/02/2023"
                }
            ],
            "decision": "ACCEPTED",
            "decisionById": "7692c4ce-dfe5-4367-8920-3bcf22614241",
            "decisionByType": "USER",
            "decisionAt": "2023-02-10T16:26:27.627876Z",
            "decisionOption": {
                "id": "6a003427-8c59-42c3-aabc-f4d3faa7e0f0",
                "createdAt": "2023-02-10T16:22:13.244954Z",
                "updatedAt": "2023-02-10T16:22:13.244954Z",
                "studyId": "8435e648-756e-4878-9d45-bced0a0d61e2",
                "description": "Order Options:\nProject Timeline: 10/02/2023 to 25/02/2023"
            }
        },
        {
            "id": "588315f5-2cb0-4a42-8fcc-1b84c405a5fa",
            "createdAt": "2023-02-10T16:07:03.726987Z",
            "updatedAt": "2023-02-10T16:07:03.726987Z",
            "accountId": "3c86279b-610a-4dba-ad12-abe3bdc51428",
            "workspaceId": "2bf014b7-e600-4cb9-ba74-4d4b7c3a60d0",
            "orderId": "9a472151-0389-4364-89ba-1a96d8ee3509",
            "type": "MANUAL",
            "options": [
                {
                    "id": "28a657d1-6e8a-4631-9b1c-16ebb4ac0c78",
                    "createdAt": "2023-02-10T16:07:04.122461Z",
                    "updatedAt": "2023-02-10T16:07:04.122461Z",
                    "studyId": "588315f5-2cb0-4a42-8fcc-1b84c405a5fa",
                    "description": "Option 1:\n\n10/02/2023 - 25/02/2023"
                }
            ],
            "decision": "NOT_DECIDED",
            "decisionById": null,
            "decisionByType": null,
            "decisionAt": null,
            "decisionOption": null
        },
        {
            "id": "0cbb508f-8ef5-4f57-b401-36e2157a2053",
            "createdAt": "2023-02-08T17:01:47.839756Z",
            "updatedAt": "2023-02-08T17:02:55.620829Z",
            "accountId": "3c86279b-610a-4dba-ad12-abe3bdc51428",
            "workspaceId": "eb1626d2-8015-43e9-acab-fbfaee89466c",
            "orderId": "81efa8f5-bd30-408a-8522-18fa5454eda9",
            "type": "MANUAL",
            "options": [
                {
                    "id": "15bef9e7-9e62-496c-a05b-ab2f4932afbd",
                    "createdAt": "2023-02-08T17:02:06.299657Z",
                    "updatedAt": "2023-02-08T17:02:06.299657Z",
                    "studyId": "0cbb508f-8ef5-4f57-b401-36e2157a2053",
                    "description": "Option 2 : More cloud cover"
                },
                {
                    "id": "9cee7846-c732-4c3d-8a55-da760096dba8",
                    "createdAt": "2023-02-08T17:01:48.359521Z",
                    "updatedAt": "2023-02-08T17:02:27.641897Z",
                    "studyId": "0cbb508f-8ef5-4f57-b401-36e2157a2053",
                    "description": "Option 1 : Change dates"
                }
            ],
            "decision": "ACCEPTED",
            "decisionById": "eb1626d2-8015-43e9-acab-fbfaee89466c",
            "decisionByType": "USER",
            "decisionAt": "2023-02-08T17:02:55.607513Z",
            "decisionOption": {
                "id": "15bef9e7-9e62-496c-a05b-ab2f4932afbd",
                "createdAt": "2023-02-08T17:02:06.299657Z",
                "updatedAt": "2023-02-08T17:02:06.299657Z",
                "studyId": "0cbb508f-8ef5-4f57-b401-36e2157a2053",
                "description": "Option 2 : More cloud cover"
            }
        }
    ],
    "pageable": {
        "sort": {
            "unsorted": false,
            "sorted": true,
            "empty": false
        },
        "pageSize": 10,
        "pageNumber": 1,
        "offset": 10,
        "unpaged": false,
        "paged": true
    },
    "last": false,
    "totalElements": 26,
    "totalPages": 3,
    "sort": {
        "unsorted": false,
        "sorted": true,
        "empty": false
    },
    "numberOfElements": 10,
    "first": false,
    "size": 10,
    "number": 1,
    "empty": false
}