{
    "content": [
        {
            "id": "8f42e993-6e35-4c8a-8918-1d6a9c687a43",
            "createdAt": "2023-02-01T14:07:22.060254Z",
            "updatedAt": "2023-02-01T14:09:00.936263Z",
            "accountId": "3c86279b-610a-4dba-ad12-abe3bdc51428",
            "workspaceId": "c17c8467-1cf5-4c86-b2f5-05c397aa67e2",
            "orderId": "5c470fa1-cd24-429f-aa46-850ddf1c636f",
            "type": "MANUAL",
            "options": [
                {
                    "id": "abcd90e6-5a51-4f8e-9fef-c12d7d6ddb44",
                    "createdAt": "2023-02-01T14:07:22.719737Z",
                    "updatedAt": "2023-02-01T14:07:22.719737Z",
                    "studyId": "8f42e993-6e35-4c8a-8918-1d6a9c687a43",
                    "description": "If the original parameters are flexible, your tasking request can be made feasible using these parameters: Acquisition period = 2023/06/15."
                },
                {
                    "id": "4a572829-9916-4b24-b452-8aebedb46214",
                    "createdAt": "2023-02-01T14:08:39.477546Z",
                    "updatedAt": "2023-02-01T14:08:39.477546Z",
                    "studyId": "8f42e993-6e35-4c8a-8918-1d6a9c687a43",
                    "description": "With your original parameters, it is implicitly acknowledged that complete coverage may not occur."
                }
            ],
            "decision": "ACCEPTED",
            "decisionById": "3c86279b-610a-4dba-ad12-abe3bdc51428",
            "decisionByType": "USER",
            "decisionAt": "2023-02-01T14:09:00.909910Z",
            "decisionOption": {
                "id": "abcd90e6-5a51-4f8e-9fef-c12d7d6ddb44",
                "createdAt": "2023-02-01T14:07:22.719737Z",
                "updatedAt": "2023-02-01T14:07:22.719737Z",
                "studyId": "8f42e993-6e35-4c8a-8918-1d6a9c687a43",
                "description": "If the original parameters are flexible, your tasking request can be made feasible using these parameters: Acquisition period = 2023/06/15."
            }
        },
        {
            "id": "8262bcf9-91d6-436a-ae5f-1f8ce1e27951",
            "createdAt": "2023-02-01T09:08:10.490708Z",
            "updatedAt": "2023-02-01T09:08:10.490708Z",
            "accountId": "3c86279b-610a-4dba-ad12-abe3bdc51428",
            "workspaceId": "29085e9b-dcf4-4786-9a28-0c074622e10e",
            "orderId": "46bd0821-ec60-4013-b3d2-41b5d041959a",
            "type": "MANUAL",
            "options": [
                {
                    "id": "1e7d2475-d79e-4bc6-a268-cb2b26b659d4",
                    "createdAt": "2023-02-01T09:08:11.648883Z",
                    "updatedAt": "2023-02-01T09:08:11.648883Z",
                    "studyId": "8262bcf9-91d6-436a-ae5f-1f8ce1e27951",
                    "description": "If the original parameters are flexible, your tasking\nrequest can be made feasible using these\nparameters:\n• Acquisition period: 2023/06/15"
                }
            ],
            "decision": "NOT_DECIDED",
            "decisionById": null,
            "decisionByType": null,
            "decisionAt": null,
            "decisionOption": null
        },
        {
            "id": "1b26f5bc-7d12-4880-b5e7-c5cdc2fc9fcd",
            "createdAt": "2023-01-24T13:54:55.394361Z",
            "updatedAt": "2023-01-24T14:01:45.658529Z",
            "accountId": "3c86279b-610a-4dba-ad12-abe3bdc51428",
            "workspaceId": "c17c8467-1cf5-4c86-b2f5-05c397aa67e2",
            "orderId": "79cf9483-9d35-40f6-9c55-d00162a15761",
            "type": "MANUAL",
            "options": [
                {
                    "id": "1c92218a-5c0f-4629-b4e8-3451b36336c6",
                    "createdAt": "2023-01-24T13:54:56.200754Z",
                    "updatedAt": "2023-01-24T13:54:56.200754Z",
                    "studyId": "1b26f5bc-7d12-4880-b5e7-c5cdc2fc9fcd",
                    "description": "Acquisition Period (YYYY-MM-DD) Start: 2022-12-09 / End: 2023-01-20"
                }
            ],
            "decision": "ACCEPTED",
            "decisionById": "1a69b97d-c4c9-4408-954c-e5f9a8818e6d",
            "decisionByType": "USER",
            "decisionAt": "2023-01-24T14:01:45.645023Z",
            "decisionOption": {
                "id": "1c92218a-5c0f-4629-b4e8-3451b36336c6",
                "createdAt": "2023-01-24T13:54:56.200754Z",
                "updatedAt": "2023-01-24T13:54:56.200754Z",
                "studyId": "1b26f5bc-7d12-4880-b5e7-c5cdc2fc9fcd",
                "description": "Acquisition Period (YYYY-MM-DD) Start: 2022-12-09 / End: 2023-01-20"
            }
        },
        {
            "id": "686e013e-6937-44ad-9d7d-6764b1f230c6",
            "createdAt": "2023-01-24T12:28:43.447300Z",
            "updatedAt": "2023-01-24T12:30:13.157383Z",
            "accountId": "3c86279b-610a-4dba-ad12-abe3bdc51428",
            "workspaceId": "313ba781-8aee-4585-b045-77eafa1fb592",
            "orderId": "354e67c7-b019-480f-9b91-c0f2c714dc6b",
            "type": "MANUAL",
            "options": [
                {
                    "id": "1f41fd9f-1f88-4d68-99ef-9aaf825ae613",
                    "createdAt": "2023-01-24T12:28:44.193243Z",
                    "updatedAt": "2023-01-24T12:28:44.193243Z",
                    "studyId": "686e013e-6937-44ad-9d7d-6764b1f230c6",
                    "description": "Feasibility option 1 - Accept increase cloud cover to 18%"
                },
                {
                    "id": "765a5f81-8c17-4095-8c8a-2108552253da",
                    "createdAt": "2023-01-24T12:29:04.220728Z",
                    "updatedAt": "2023-01-24T12:29:04.220728Z",
                    "studyId": "686e013e-6937-44ad-9d7d-6764b1f230c6",
                    "description": "Feasibility option 2 - Move acquisition dates to early May"
                },
                {
                    "id": "b6fa9c0b-de95-4e0d-b46f-f06406a29223",
                    "createdAt": "2023-01-24T12:29:18.028744Z",
                    "updatedAt": "2023-01-24T12:29:24.448812Z",
                    "studyId": "686e013e-6937-44ad-9d7d-6764b1f230c6",
                    "description": "Feasibility option 3 - parameters as-is OnePlan Pro"
                }
            ],
            "decision": "ACCEPTED",
            "decisionById": "313ba781-8aee-4585-b045-77eafa1fb592",
            "decisionByType": "USER",
            "decisionAt": "2023-01-24T12:30:13.141156Z",
            "decisionOption": {
                "id": "765a5f81-8c17-4095-8c8a-2108552253da",
                "createdAt": "2023-01-24T12:29:04.220728Z",
                "updatedAt": "2023-01-24T12:29:04.220728Z",
                "studyId": "686e013e-6937-44ad-9d7d-6764b1f230c6",
                "description": "Feasibility option 2 - Move acquisition dates to early May"
            }
        },
        {
            "id": "2c8a3b48-326d-4dfa-a70f-e12eef9ad5fe",
            "createdAt": "2023-01-20T09:22:26.314753Z",
            "updatedAt": "2023-01-20T09:22:26.314753Z",
            "accountId": "3c86279b-610a-4dba-ad12-abe3bdc51428",
            "workspaceId": "c17c8467-1cf5-4c86-b2f5-05c397aa67e2",
            "orderId": "462f64d7-8169-4414-86f9-2515ed415c0d",
            "type": "MANUAL",
            "options": [
                {
                    "id": "c7baca2d-1d05-49f7-956d-03809a63205a",
                    "createdAt": "2023-01-20T09:22:26.605027Z",
                    "updatedAt": "2023-01-20T09:22:26.605027Z",
                    "studyId": "2c8a3b48-326d-4dfa-a70f-e12eef9ad5fe",
                    "description": "1\nWith your original parameters, we consider your tasking request to be\nfeasible."
                }
            ],
            "decision": "NOT_DECIDED",
            "decisionById": null,
            "decisionByType": null,
            "decisionAt": null,
            "decisionOption": null
        },
        {
            "id": "5deda8a4-84af-4d91-b464-054a3a0f0791",
            "createdAt": "2023-01-20T09:22:06.047002Z",
            "updatedAt": "2023-02-08T15:58:09.994081Z",
            "accountId": "3c86279b-610a-4dba-ad12-abe3bdc51428",
            "workspaceId": "c17c8467-1cf5-4c86-b2f5-05c397aa67e2",
            "orderId": "c4777500-4ae4-479c-84a8-7efa411ebf4e",
            "type": "MANUAL",
            "options": [
                {
                    "id": "541541d7-d469-46a8-98a0-b57ed1dbcecf",
                    "createdAt": "2023-01-20T09:22:06.997116Z",
                    "updatedAt": "2023-01-20T09:22:06.997116Z",
                    "studyId": "5deda8a4-84af-4d91-b464-054a3a0f0791",
                    "description": "If the original parameters are flexible, your tasking request can be\nmade feasible using these parameters:\n• Start: 2023-06-15 / End: 2023-07/10"
                }
            ],
            "decision": "ACCEPTED",
            "decisionById": "c17c8467-1cf5-4c86-b2f5-05c397aa67e2",
            "decisionByType": "USER",
            "decisionAt": "2023-02-08T15:58:09.840976Z",
            "decisionOption": {
                "id": "541541d7-d469-46a8-98a0-b57ed1dbcecf",
                "createdAt": "2023-01-20T09:22:06.997116Z",
                "updatedAt": "2023-01-20T09:22:06.997116Z",
                "studyId": "5deda8a4-84af-4d91-b464-054a3a0f0791",
                "description": "If the original parameters are flexible, your tasking request can be\nmade feasible using these parameters:\n• Start: 2023-06-15 / End: 2023-07/10"
            }
        }
    ],
    "pageable": {
        "sort": {
            "sorted": true,
            "unsorted": false,
            "empty": false
        },
        "pageNumber": 2,
        "pageSize": 10,
        "offset": 20,
        "unpaged": false,
        "paged": true
    },
    "totalPages": 3,
    "totalElements": 26,
    "last": true,
    "sort": {
        "sorted": true,
        "unsorted": false,
        "empty": false
    },
    "numberOfElements": 6,
    "first": false,
    "size": 10,
    "number": 2,
    "empty": false
}
